\relax 
\providecommand\hyper@newdestlabel[2]{}
\providecommand*\new@tpo@label[2]{}
\catcode `"\active 
\providecommand\HyperFirstAtBeginDocument{\AtBeginDocument}
\HyperFirstAtBeginDocument{\ifx\hyper@anchor\@undefined
\global\let\oldcontentsline\contentsline
\gdef\contentsline#1#2#3#4{\oldcontentsline{#1}{#2}{#3}}
\global\let\oldnewlabel\newlabel
\gdef\newlabel#1#2{\newlabelxx{#1}#2}
\gdef\newlabelxx#1#2#3#4#5#6{\oldnewlabel{#1}{{#2}{#3}}}
\AtEndDocument{\ifx\hyper@anchor\@undefined
\let\contentsline\oldcontentsline
\let\newlabel\oldnewlabel
\fi}
\fi}
\global\let\hyper@last\relax 
\gdef\HyperFirstAtBeginDocument#1{#1}
\providecommand\HyField@AuxAddToFields[1]{}
\providecommand\HyField@AuxAddToCoFields[2]{}
\babel@aux{ngerman}{}
\@writefile{lof}{\contentsline {figure}{\numberline {1}{\ignorespaces Same Broadcast Domain}}{4}{figure.1}}
\newlabel{aufgabe:I}{{1}{4}{Same Broadcast Domain}{figure.1}{}}
\@writefile{lof}{\contentsline {figure}{\numberline {2}{\ignorespaces Routed}}{4}{figure.2}}
\newlabel{aufgabe:II}{{2}{4}{Routed}{figure.2}{}}
\@writefile{lot}{\contentsline {table}{\numberline {1}{\ignorespaces Auszug Ausbildungsrahmenlehrplan der Fachrichtung Systemintegration}}{5}{table.1}}
\newlabel{table:arpNetzwerke}{{1}{5}{Auszug Ausbildungsrahmenlehrplan der Fachrichtung Systemintegration}{table.1}{}}
\newlabel{lernhilfen}{{}{6}{Frames, Headers and PDUs}{section*.12}{}}
